<?xml version="1.0" encoding="iso-8859-1"?>
<!-- Generator: Adobe Illustrator 22.1.0, SVG Export Plug-In . SVG Version: 6.00 Build 0)  -->
<svg version="1.1" id="Calque_1" xmlns="http://www.w3.org/2000/svg" xmlns:xlink="http://www.w3.org/1999/xlink" x="0px" y="0px"
	 viewBox="0 0 161.018 185.928" style="enable-background:new 0 0 161.018 185.928;" xml:space="preserve">
<g>
	<linearGradient id="SVGID_1_" gradientUnits="userSpaceOnUse" x1="197.7826" y1="-87.1903" x2="50.1422" y2="139.6114">
		<stop  offset="0" style="stop-color:#1A3C71"/>
		<stop  offset="1" style="stop-color:#36AF68"/>
	</linearGradient>
	<polygon style="fill:url(#SVGID_1_);" points="0,46.48 80.509,0 161.018,46.48 161.018,139.445 80.509,185.928 0,139.445 	"/>
</g>
<linearGradient id="SVGID_2_" gradientUnits="userSpaceOnUse" x1="-285.7774" y1="-392.3082" x2="-225.6256" y2="-392.3082" gradientTransform="matrix(0 1 -0.4477 -0.2548 -130.0668 258.1522)">
	<stop  offset="0" style="stop-color:#FFFFFF"/>
	<stop  offset="1" style="stop-color:#FFFFFF;stop-opacity:0"/>
</linearGradient>
<polygon style="opacity:0.3;fill:url(#SVGID_2_);" points="8.934,117.599 8.498,51.236 81.689,92.9 82.641,165.077 "/>
</svg>
